Time : 10:54:25
SQLSTATE[HY093]: Invalid parameter number: parameter was not defined
Raw SQL : SELECT * FROM adverts WHERE `active` = 1 AND `validTill` <= :validTill LIMIT 9

Time : 07:14:27
SQLSTATE[HY093]: Invalid parameter number
Raw SQL : SELECT * FROM adverts WHERE `active` = 1 AND `validTill` >= :postingDate AND :validTill <= :validTill LIMIT 9

Time : 07:14:07
SQLSTATE[HY093]: Invalid parameter number: parameter was not defined
Raw SQL : SELECT * FROM adverts WHERE `active` = 1 AND `validTill` >= :postingDate AND :validTill <= :validTill LIMIT 9

Time : 06:48:19
SQLSTATE[42000]: Syntax error or access violation: 1064 You have an error in your SQL syntax; check the manual that corresponds to your MariaDB server version for the right syntax to use near '. 9' at line 1
Raw SQL : SELECT * FROM adverts LIMIT . 9

Time : 06:47:00
SQLSTATE[42000]: Syntax error or access violation: 1065 Query was empty

Time : 06:25:27
SQLSTATE[42000]: Syntax error or access violation: 1065 Query was empty

Time : 06:25:03
SQLSTATE[42000]: Syntax error or access violation: 1065 Query was empty

Time : 06:24:41
SQLSTATE[42000]: Syntax error or access violation: 1065 Query was empty

Time : 06:24:16
SQLSTATE[42000]: Syntax error or access violation: 1065 Query was empty

