Time : 18:17:56
SQLSTATE[42S22]: Column not found: 1054 Unknown column 'dateTime' in 'field list'
Raw SQL : SELECT `dateTime` FROM `crimes` WHERE `ID` = :id

Time : 17:40:52
SQLSTATE[42S22]: Column not found: 1054 Unknown column 'date' in 'field list'
Raw SQL : SELECT `date` FROM `crimes` WHERE `ID` = :id
