Time : 11:29:27
SQLSTATE[HY093]: Invalid parameter number
Raw SQL : SELECT * FROM `crimes` WHERE `slug` LIKE :slug AND `dateOccurred` LIKE :dateOccurred AND `location` LIKE :location AND `slug` != :slug AND `dateOccurred` != :dateOccurred AND `location` != :location
